//reference terminals and non terminals without specifying.
import static null.CUP2Spec.NonTerminals.*;
import static null.CUP2Spec.Terminals.*;
import edu.tum.cup2.grammar.*;
import edu.tum.cup2.spec.*;
import edu.tum.cup2.semantics.*;
//generated by BeaverToCup2 by Karl Rikte
public class CUP2Spec extends CUP2Specification {

	public static enum Terminals implements edu.tum.cup2.grammar.Terminal {
		EQUALS;
	}

	public static enum NonTerminals implements edu.tum.cup2.grammar.NonTerminal {
		;
	}



	public CUP2Spec(){
		grammar(

		);
		precedences(

		);
	}
}
